%YAML 1.1
%TAG !u! tag:unity3d.com,2011:
--- !u!114 &11400000
MonoBehaviour:
  m_ObjectHideFlags: 0
  m_CorrespondingSourceObject: {fileID: 0}
  m_PrefabInstance: {fileID: 0}
  m_PrefabAsset: {fileID: 0}
  m_GameObject: {fileID: 0}
  m_Enabled: 1
  m_EditorHideFlags: 0
  m_Script: {fileID: 11500000, guid: fef147b3110674e48a30bf35dbf76aec, type: 3}
  m_Name: PER_BL
  m_EditorClassIdentifier: 
  schedule: {fileID: 11400000, guid: 6208b13794a858d49a1b3c5952186951, type: 2}
  barks: {fileID: 11400000, guid: 1bcf966daee769c4ea5c8fc4c0bf33ab, type: 2}
  neighbourColor: {r: 0.45882353, g: 1, b: 0.3254902, a: 1}
