%YAML 1.1
%TAG !u! tag:unity3d.com,2011:
--- !u!114 &11400000
MonoBehaviour:
  m_ObjectHideFlags: 0
  m_CorrespondingSourceObject: {fileID: 0}
  m_PrefabInstance: {fileID: 0}
  m_PrefabAsset: {fileID: 0}
  m_GameObject: {fileID: 0}
  m_Enabled: 1
  m_EditorHideFlags: 0
  m_Script: {fileID: 11500000, guid: c0ff07e8ed764e64793bfc115d163957, type: 3}
  m_Name: SCH_BL
  m_EditorClassIdentifier: 
  scheduledActions: 06000000080000000100000000000000000000000000000000000000000000000000000000000000000000000000000000000000020000000a0000000900000000000000000000000c0000000b00000003000000040000000000000000000000
